Data Science Concepts / Data Science Tools - W#10: Performance Metrics, Cross validation, Hypothesis testing, Math: Probability
…
[1] 0.1774194

sum(one_sim() == "complication")/62

[1] 0.1129032

sum(one_sim() == "complication")/62

[1] 0.1129032

Automating with tidymodels1

organ_donor

# A tibble: 62 × 1
   outcome        
   <chr>          
 1 complication   
 2 complication   
 3 complication   
 4 no complication
 5 no complication
 6 no complication
 7 no complication
 8 no complication
 9 no complication
10 no complication
# ℹ 52 more rows

library(tidymodels)
set.seed(10)
null_dist <- organ_donor |>
  specify(response = outcome, success = "complication") |>
  hypothesize(null = "point", 
              p = c("complication" = 0.10, "no complication" = 0.90)) |> 
  generate(reps = 100, type = "draw") |> 
  calculate(stat = "prop")
null_dist

Response: outcome (factor)
Null Hypothesis: point
# A tibble: 100 × 2
   replicate   stat
       <int>  <dbl>
 1         1 0.0323
 2         2 0.0645
 3         3 0.0968
 4         4 0.0161
 5         5 0.161 
 6         6 0.0968
 7         7 0.0645
 8         8 0.129 
 9         9 0.161 
10        10 0.0968
# ℹ 90 more rows
…
Look again at the coefficients of a logistic regression model

Learn the basic idea of a decision tree (you will not learn the details here)

Do the classification with both models and compare the confusion matrices

Specify recipe and models

For both logistic regression and decision tree:

library(tidymodels)
library(palmerpenguins)
penguins

# A tibble: 344 × 8
   species island    bill_length_mm bill_depth_mm flipper_length_mm body_mass_g
   <fct>   <fct>              <dbl>         <dbl>             <int>       <int>
 1 Adelie  Torgersen           39.1          18.7               181        3750
 2 Adelie  Torgersen           39.5          17.4               186        3800
 3 Adelie  Torgersen           40.3          18                 195        3250
 4 Adelie  Torgersen           NA            NA                  NA          NA
 5 Adelie  Torgersen           36.7          19.3               193        3450
 6 Adelie  Torgersen           39.3          20.6               190        3650
 7 Adelie  Torgersen           38.9          17.8               181        3625
 8 Adelie  Torgersen           39.2          19.6               195        4675
 9 Adelie  Torgersen           34.1          18.1               193        3475
10 Adelie  Torgersen           42            20.2               190        4250
# ℹ 334 more rows
# ℹ 2 more variables: sex <fct>, year <int>
…
