Data Science Concepts / Data Science Tools - W#10: Performance Metrics, Cross validation, Hypothesis testing, Math: Probability
…
The coefficients are identical to the full model with all interaction effects.

Make predictions for training data

ess_train_pred1 <- predict(ess_fit1, ess_train) |> 
 bind_cols(ess_train |> select(euftf, everything()))
ess_train_pred1

# A tibble: 39,615 × 7
   .pred euftf cntry atchctr atcherp imueclt lrscale
   <dbl> <dbl> <chr>   <dbl>   <dbl>   <dbl>   <dbl>
 1  5.27     3 HR          8       7       5       8
 2  4.93     6 BG          6       5       5       7
 3 NA        3 IE         10       9       3      NA
 4 NA       NA EE         10      10       6      NA
 5  5.20    NA BG         10       7       5       5
 6  5.67     8 BG          9       6       8      10
 7  5.52     3 AT         10      10       3       4
 8  7.22     3 FR          9       8      10       0
 9  4.17     1 FI          8       5       3       7
10  4.47     4 BG         10       7       3       9
# ℹ 39,605 more rows

Note:

We can make predictions when the response in NA

We cannot make predictions when on predictor is NA

Make predictions for training data

ess_train_pred2 <- predict(ess_fit2, ess_train) |> 
 bind_cols(ess_train |> select(euftf, everything()))
ess_train_pred2

# A tibble: 39,615 × 7
   .pred euftf cntry atchctr atcherp imueclt lrscale
   <dbl> <dbl> <chr>   <dbl>   <dbl>   <dbl>   <dbl>
 1  5.42     3 HR          8       7       5       8
 2  5.53     6 BG          6       5       5       7
 3 NA        3 IE         10       9       3      NA
 4 NA       NA EE         10      10       6      NA
 5  5.75    NA BG         10       7       5       5
 6  6.36     8 BG          9       6       8      10
 7  4.86     3 AT         10      10       3       4
 8  7.28     3 FR          9       8      10       0
 9  3.54     1 FI          8       5       3       7
10  5.08     4 BG         10       7       3       9
# ℹ 39,605 more rows

ess_train_pred3 <- predict(ess_fit3, ess_train) |> 
 bind_cols(ess_train |> select(euftf, everything()))
ess_train_pred3

# A tibble: 39,615 × 7
   .pred euftf cntry atchctr atcherp imueclt lrscale
   <dbl> <dbl> <chr>   <dbl>   <dbl>   <dbl>   <dbl>
 1  5.45     3 HR          8       7       5       8
 2  5.22     6 BG          6       5       5       7
 3 NA        3 IE         10       9       3      NA
 4 NA       NA EE         10      10       6      NA
 5  5.94    NA BG         10       7       5       5
 6  6.47     8 BG          9       6       8      10
 7  4.56     3 AT         10      10       3       4
 8  7.06     3 FR          9       8      10       0
 9  3.63     1 FI          8       5       3       7
10  5.47     4 BG         10       7       3       9
# ℹ 39,605 more rows
…
Make predictions for testing data

ess_test_pred3 <- predict(ess_fit3, ess_test) |> 
 bind_cols(ess_test |> select(euftf, everything()))
ess_test_pred3

# A tibble: 9,904 × 7
   .pred euftf cntry atchctr atcherp imueclt lrscale
   <dbl> <dbl> <chr>   <dbl>   <dbl>   <dbl>   <dbl>
 1  3.93     5 AT          9       6       4       5
 2 NA        2 AT         10       3       7      NA
 3  4.49     4 AT          5       5       4       3
 4  2.56     3 AT          8       6       0       4
 5  7.73    10 AT         10      10      10       2
 6  6.66     8 AT          5       7       8       3
 7  2.87     2 AT         10       4       3       5
 8  3.43     5 AT         10       3       5       5
 9  7.19    10 AT          7       9       8       1
10  3.24     8 AT         10       6       3       6
# ℹ 9,894 more rows
…
